%YAML 1.1
%TAG !u! tag:unity3d.com,2011:
--- !u!114 &11400000
MonoBehaviour:
  m_ObjectHideFlags: 0
  m_CorrespondingSourceObject: {fileID: 0}
  m_PrefabInstance: {fileID: 0}
  m_PrefabAsset: {fileID: 0}
  m_GameObject: {fileID: 0}
  m_Enabled: 1
  m_EditorHideFlags: 0
  m_Script: {fileID: 11500000, guid: 74d3e7dd510306f49a8b5517ad6f8efa, type: 3}
  m_Name: Jupiter
  m_EditorClassIdentifier: 
  G: 24.5
  skyColor: {r: 0.8962264, g: 0.29131985, b: 0.021137413, a: 0}
